[
  {
    "category": "``connect``",
    "description": "Adding Contact Flow metrics to the GetMetricDataV2 API",
    "type": "api-change"
  },
  {
    "category": "``sagemaker``",
    "description": "Introduced WorkerAccessConfiguration to SageMaker Workteam. This allows customers to configure resource access for workers in a workteam.",
    "type": "api-change"
  },
  {
    "category": "``mwaa``",
    "description": "Amazon MWAA now supports Airflow web server auto scaling to automatically handle increased demand from REST APIs, Command Line Interface (CLI), or more Airflow User Interface (UI) users. Customers can specify maximum and minimum web server instances during environment creation and update workflow.",
    "type": "api-change"
  },
  {
    "category": "``kafka``",
    "description": "AWS MSK support for Broker Removal.",
    "type": "api-change"
  },
  {
    "category": "``quicksight``",
    "description": "This release adds DescribeKeyRegistration and UpdateKeyRegistration APIs to manage QuickSight Customer Managed Keys (CMK).",
    "type": "api-change"
  },
  {
    "category": "``acm-pca``",
    "description": "This release adds support for waiters to fail on AccessDeniedException when having insufficient permissions",
    "type": "api-change"
  },
  {
    "category": "``secretsmanager``",
    "description": "Documentation updates for AWS Secrets Manager",
    "type": "api-change"
  }
]