[
  {
    "category": "``transfer``",
    "description": "Enable use of CloudFormation traits in Smithy model to improve generated CloudFormation schema from the Smithy API model.",
    "type": "api-change"
  },
  {
    "category": "``codebuild``",
    "description": "Aws CodeBuild now supports 36 hours build timeout",
    "type": "api-change"
  },
  {
    "category": "``application-autoscaling``",
    "description": "add v2 smoke tests and smithy smokeTests trait for SDK testing.",
    "type": "api-change"
  },
  {
    "category": "``elbv2``",
    "description": "This release adds dualstack-without-public-ipv4 IP address type for ALB.",
    "type": "api-change"
  },
  {
    "category": "``lakeformation``",
    "description": "Introduces a new API, GetDataLakePrincipal, that returns the identity of the invoking principal",
    "type": "api-change"
  }
]