[
  {
    "category": "``amplify``",
    "description": "This doc-only update identifies fields that are specific to Gen 1 and Gen 2 applications.",
    "type": "api-change"
  },
  {
    "category": "``iottwinmaker``",
    "description": "Support RESET_VALUE UpdateType for PropertyUpdates to reset property value to default or null",
    "type": "api-change"
  },
  {
    "category": "``batch``",
    "description": "This release adds support for the AWS Batch GetJobQueueSnapshot API operation.",
    "type": "api-change"
  },
  {
    "category": "logs start-live-tail",
    "description": "Adds support for starting a live tail streaming session for one or more log groups.",
    "type": "feature"
  },
  {
    "category": "``eks``",
    "description": "Adds support for EKS add-ons pod identity associations integration",
    "type": "api-change"
  }
]