[
  {
    "category": "``polly``",
    "description": "Amazon Polly adds 2 new voices: Jitka (cs-CZ) and Sabrina (de-CH).",
    "type": "api-change"
  },
  {
    "category": "``chatbot``",
    "description": "Update documentation to be consistent with the API docs",
    "type": "api-change"
  },
  {
    "category": "``bedrock``",
    "description": "Amazon Bedrock SDK updates for Inference Profile.",
    "type": "api-change"
  },
  {
    "category": "``bedrock-runtime``",
    "description": "Amazon Bedrock SDK updates for Inference Profile.",
    "type": "api-change"
  },
  {
    "category": "``omics``",
    "description": "Adds data provenance to import jobs from read sets and references",
    "type": "api-change"
  }
]