[
  {
    "category": "``chime-sdk-voice``",
    "description": "Documentation-only update that clarifies the ValidateE911Address action of the Amazon Chime SDK Voice APIs.",
    "type": "api-change"
  },
  {
    "category": "``cognito-identity``",
    "description": "This release adds sensitive trait to some required shapes.",
    "type": "api-change"
  },
  {
    "category": "``securityhub``",
    "description": "Documentation update for Security Hub",
    "type": "api-change"
  },
  {
    "category": "``pipes``",
    "description": "This release adds support for customer managed KMS keys in Amazon EventBridge Pipe",
    "type": "api-change"
  }
]