[
  {
    "category": "``ses``",
    "description": "Enable email receiving customers to provide SES with access to their S3 buckets via an IAM role for \"Deliver to S3 Action\"",
    "type": "api-change"
  },
  {
    "category": "``lambda``",
    "description": "Release FilterCriteria encryption for Lambda EventSourceMapping,  enabling customers to encrypt their filter criteria using a customer-owned KMS key.",
    "type": "api-change"
  },
  {
    "category": "``codestar``",
    "description": "The codestar client has been removed following the deprecation of the service on July 31, 2024.",
    "type": "api-change"
  },
  {
    "category": "``entityresolution``",
    "description": "Increase the mapping attributes in Schema to 35.",
    "type": "api-change"
  },
  {
    "category": "``ec2``",
    "description": "DescribeInstanceStatus now returns health information on EBS volumes attached to Nitro instances",
    "type": "api-change"
  },
  {
    "category": "``securityhub``",
    "description": "Security Hub documentation and definition updates",
    "type": "api-change"
  },
  {
    "category": "``glue``",
    "description": "Add optional field JobRunQueuingEnabled to CreateJob and UpdateJob APIs.",
    "type": "api-change"
  }
]