[
  {
    "category": "``bedrock-agent-runtime``",
    "description": "Releasing the support for Action User Confirmation.",
    "type": "api-change"
  },
  {
    "category": "``bedrock-agent``",
    "description": "Releasing the support for Action User Confirmation.",
    "type": "api-change"
  },
  {
    "category": "``supplychain``",
    "description": "Update API documentation to clarify the event SLA as well as the data model expectations",
    "type": "api-change"
  },
  {
    "category": "``qbusiness``",
    "description": "Amazon QBusiness: Enable support for SAML and OIDC federation through AWS IAM Identity Provider integration.",
    "type": "api-change"
  },
  {
    "category": "``organizations``",
    "description": "Releasing minor partitional endpoint updates.",
    "type": "api-change"
  },
  {
    "category": "``codebuild``",
    "description": "Added support for the MAC_ARM environment type for CodeBuild fleets.",
    "type": "api-change"
  }
]