[
  {
    "category": "``medialive``",
    "description": "Added MinQP as a Rate Control option for H264 and H265 encodes.",
    "type": "api-change"
  },
  {
    "category": "``timestream-influxdb``",
    "description": "Timestream for InfluxDB now supports compute scaling and deployment type conversion. This release adds the DbInstanceType and DeploymentType parameters to the UpdateDbInstance API.",
    "type": "api-change"
  },
  {
    "category": "``sagemaker``",
    "description": "Amazon SageMaker now supports automatic mounting of a user's home folder in the Amazon Elastic File System (EFS) associated with the SageMaker Studio domain to their Studio Spaces to enable users to share data between their own private spaces.",
    "type": "api-change"
  },
  {
    "category": "``elbv2``",
    "description": "This release adds support for configuring TCP idle timeout on NLB and GWLB listeners.",
    "type": "api-change"
  },
  {
    "category": "``mediaconnect``",
    "description": "AWS Elemental MediaConnect introduces thumbnails for Flow source monitoring. Thumbnails provide still image previews of the live content feeding your MediaConnect Flow allowing you to easily verify that your source is operating as expected.",
    "type": "api-change"
  },
  {
    "category": "``connect``",
    "description": "Release ReplicaConfiguration as part of DescribeInstance",
    "type": "api-change"
  },
  {
    "category": "``datazone``",
    "description": "Add support to let data publisher specify a subset of the data asset that a subscriber will have access to based on the asset filters provided, when accepting a subscription request.",
    "type": "api-change"
  }
]