[
  {
    "category": "``ssm-sap``",
    "description": "Add new attributes to the outputs of GetApplication and GetDatabase APIs.",
    "type": "api-change"
  },
  {
    "category": "``bedrock``",
    "description": "Amazon Bedrock Batch Inference/ Model Invocation is a feature which allows customers to asynchronously run inference on a large set of records/files stored in S3.",
    "type": "api-change"
  },
  {
    "category": "``lambda``",
    "description": "Release Lambda FunctionRecursiveConfig, enabling customers to turn recursive loop detection on or off on individual functions. This release adds two new APIs, GetFunctionRecursionConfig and PutFunctionRecursionConfig.",
    "type": "api-change"
  },
  {
    "category": "``deadline``",
    "description": "This release adds additional search fields and provides sorting by multiple fields.",
    "type": "api-change"
  },
  {
    "category": "``codebuild``",
    "description": "AWS CodeBuild now supports creating fleets with macOS platform for running builds.",
    "type": "api-change"
  }
]