[
  {
    "category": "``qbusiness``",
    "description": "Allow enable/disable Q Apps when creating/updating a Q application; Return the Q Apps enablement information when getting a Q application.",
    "type": "api-change"
  },
  {
    "category": "``ec2``",
    "description": "Fix EC2 multi-protocol info in models.",
    "type": "api-change"
  },
  {
    "category": "``ssm``",
    "description": "Add sensitive trait to SSM IPAddress property for CloudTrail redaction",
    "type": "api-change"
  },
  {
    "category": "``customer-profiles``",
    "description": "This release includes changes to ProfileObjectType APIs, adds functionality top set and get capacity for profile object types.",
    "type": "api-change"
  },
  {
    "category": "``workspaces-web``",
    "description": "Added ability to enable DeepLinking functionality on a Portal via UserSettings as well as added support for IdentityProvider resource tagging.",
    "type": "api-change"
  },
  {
    "category": "``bedrock-runtime``",
    "description": "Increases Converse API's document name length",
    "type": "api-change"
  }
]