[
  {
    "category": "``workspaces``",
    "description": "WSP is being rebranded to become DCV.",
    "type": "api-change"
  },
  {
    "category": "``s3``",
    "description": "This release introduces a header representing the minimum object size limit for Lifecycle transitions.",
    "type": "api-change"
  },
  {
    "category": "``sagemaker``",
    "description": "releasing builtinlcc to public",
    "type": "api-change"
  },
  {
    "category": "``appstream``",
    "description": "Added support for Automatic Time Zone Redirection on Amazon AppStream 2.0",
    "type": "api-change"
  },
  {
    "category": "``ivs-realtime``",
    "description": "Adds new Stage Health EventErrorCodes applicable to RTMP(S) broadcasts. Bug Fix: Enforces that EncoderConfiguration Video height and width must be even-number values.",
    "type": "api-change"
  },
  {
    "category": "``iotdeviceadvisor``",
    "description": "Add clientToken attribute and implement idempotency for CreateSuiteDefinition.",
    "type": "api-change"
  },
  {
    "category": "``b2bi``",
    "description": "Added and updated APIs to support outbound EDI transformations",
    "type": "api-change"
  },
  {
    "category": "``bedrock-agent-runtime``",
    "description": "Added raw model response and usage metrics to PreProcessing and PostProcessing Trace",
    "type": "api-change"
  },
  {
    "category": "``bedrock-runtime``",
    "description": "Added new fields to Amazon Bedrock Guardrails trace",
    "type": "api-change"
  }
]