[
  {
    "category": "``rds``",
    "description": "Launching Global Cluster tagging.",
    "type": "api-change"
  },
  {
    "category": "``organizations``",
    "description": "Doc only update for AWS Organizations that fixes several customer-reported issues",
    "type": "api-change"
  },
  {
    "category": "``medialive``",
    "description": "Removing the ON_PREMISE enum from the input settings field.",
    "type": "api-change"
  },
  {
    "category": "python",
    "description": "Update bundled Python interpreter version to 3.12.6",
    "type": "ehancement"
  },
  {
    "category": "``pca-connector-scep``",
    "description": "This is a general availability (GA) release of Connector for SCEP, a feature of AWS Private CA. Connector for SCEP links your SCEP-enabled and mobile device management systems to AWS Private CA for digital signature installation and certificate management.",
    "type": "api-change"
  },
  {
    "category": "``iot``",
    "description": "This release adds additional enhancements to AWS IoT Device Management Software Package Catalog and Jobs. It also adds SBOM support in Software Package Version.",
    "type": "api-change"
  },
  {
    "category": "``bedrock``",
    "description": "This feature adds cross account s3 bucket and VPC support to ModelInvocation jobs. To use a cross account bucket, pass in the accountId of the bucket to s3BucketOwner in the ModelInvocationJobInputDataConfig or ModelInvocationJobOutputDataConfig.",
    "type": "api-change"
  }
]