[
  {
    "category": "``elbv2``",
    "description": "Add paginators for the ELBv2 DescribeListenerCertificates and DescribeRules APIs. Fix broken waiter for the ELBv2 DescribeLoadBalancers API.",
    "type": "api-change"
  },
  {
    "category": "``kafka``",
    "description": "Amazon MSK Replicator can now replicate data to identically named topics between MSK clusters within the same AWS Region or across different AWS Regions.",
    "type": "api-change"
  },
  {
    "category": "``sagemaker``",
    "description": "Amazon Sagemaker supports orchestrating SageMaker HyperPod clusters with Amazon EKS",
    "type": "api-change"
  },
  {
    "category": "``dynamodb``",
    "description": "Doc-only update for DynamoDB. Added information about async behavior for TagResource and UntagResource APIs and updated the description of ResourceInUseException.",
    "type": "api-change"
  },
  {
    "category": "``sagemaker-runtime``",
    "description": "AWS SageMaker Runtime feature: Add sticky routing to support stateful inference models.",
    "type": "api-change"
  },
  {
    "category": "``ivs-realtime``",
    "description": "IVS Real-Time now offers customers the ability to broadcast to Stages using RTMP(S).",
    "type": "api-change"
  }
]