[
  {
    "category": "``bedrock``",
    "description": "Adding converse support to CMI API's",
    "type": "api-change"
  },
  {
    "category": "``ec2``",
    "description": "RequestSpotInstances and RequestSpotFleet feature release.",
    "type": "api-change"
  },
  {
    "category": "``bedrock-runtime``",
    "description": "Added converse support for custom imported models",
    "type": "api-change"
  },
  {
    "category": "``athena``",
    "description": "Removing FEDERATED from Create/List/Delete/GetDataCatalog API",
    "type": "api-change"
  },
  {
    "category": "``datazone``",
    "description": "Adding the following project member designations: PROJECT_CATALOG_VIEWER, PROJECT_CATALOG_CONSUMER and PROJECT_CATALOG_STEWARD in the CreateProjectMembership API and PROJECT_CATALOG_STEWARD designation in the AddPolicyGrant API.",
    "type": "api-change"
  }
]