[
  {
    "category": "``ecs``",
    "description": "This is an Amazon ECS documentation only update to address tickets.",
    "type": "api-change"
  },
  {
    "category": "``workspaces``",
    "description": "Updated the DomainName pattern for Active Directory",
    "type": "api-change"
  },
  {
    "category": "``quicksight``",
    "description": "Add StartDashboardSnapshotJobSchedule API. RestoreAnalysis now supports restoring analysis to folders.",
    "type": "api-change"
  },
  {
    "category": "``pinpoint-sms-voice-v2``",
    "description": "Added the registrations status of REQUIRES_AUTHENTICATION",
    "type": "api-change"
  },
  {
    "category": "``bedrock-agent``",
    "description": "Removing support for topK property in PromptModelInferenceConfiguration object, Making PromptTemplateConfiguration property as required, Limiting the maximum PromptVariant to 1",
    "type": "api-change"
  },
  {
    "category": "``rds``",
    "description": "Updates Amazon RDS documentation for TAZ IAM support",
    "type": "api-change"
  },
  {
    "category": "``pipes``",
    "description": "This release adds validation to require specifying a SecurityGroup and Subnets in the Vpc object under PipesSourceSelfManagedKafkaParameters. It also adds support for iso-e, iso-f, and other non-commercial partitions in ARN parameters.",
    "type": "api-change"
  },
  {
    "category": "``dataexchange``",
    "description": "This release adds Data Grant support, through which customers can programmatically create data grants to share with other AWS accounts and accept data grants from other AWS accounts.",
    "type": "api-change"
  }
]