[
  {
    "category": "``taxsettings``",
    "description": "Add support for supplemental tax registrations via these new APIs: PutSupplementalTaxRegistration, ListSupplementalTaxRegistrations, and DeleteSupplementalTaxRegistration.",
    "type": "api-change"
  },
  {
    "category": "``logs``",
    "description": "This release introduces an improvement in PutLogEvents",
    "type": "api-change"
  },
  {
    "category": "``docdb-elastic``",
    "description": "Amazon DocumentDB Elastic Clusters adds support for pending maintenance actions feature with APIs GetPendingMaintenanceAction, ListPendingMaintenanceActions and ApplyPendingMaintenanceAction",
    "type": "api-change"
  },
  {
    "category": "``bedrock-agent``",
    "description": "Amazon Bedrock Knowledge Bases now supports using application inference profiles to increase throughput and improve resilience.",
    "type": "api-change"
  }
]