[
  {
    "category": "``glue``",
    "description": "Add schedule support for AWS Glue column statistics",
    "type": "api-change"
  },
  {
    "category": "``autoscaling``",
    "description": "Adds bake time for Auto Scaling group Instance Refresh",
    "type": "api-change"
  },
  {
    "category": "``sagemaker``",
    "description": "SageMaker HyperPod adds scale-down at instance level via BatchDeleteClusterNodes API and group level via UpdateCluster API. SageMaker Training exposes secondary job status in TrainingJobSummary from ListTrainingJobs API. SageMaker now supports G6, G6e, P5e instances for HyperPod and Training.",
    "type": "api-change"
  },
  {
    "category": "signing",
    "description": "Adds internal support for the new 'auth' trait to allow a priority list of auth types for a service or operation.",
    "type": "feature"
  },
  {
    "category": "``batch``",
    "description": "Add `podNamespace` to `EksAttemptDetail` and `containerID` to `EksAttemptContainerDetail`.",
    "type": "api-change"
  },
  {
    "category": "``amp``",
    "description": "Added support for UpdateScraper API, to enable updating collector configuration in-place",
    "type": "api-change"
  },
  {
    "category": "``sesv2``",
    "description": "This release enables customers to provide the email template content in the SESv2 SendEmail and SendBulkEmail APIs instead of the name or the ARN of a stored email template.",
    "type": "api-change"
  },
  {
    "category": "``elbv2``",
    "description": "Add UDP support for AWS PrivateLink and dual-stack Network Load Balancers",
    "type": "api-change"
  }
]