[
  {
    "category": "``appsync``",
    "description": "Modify UpdateGraphQLAPI operation and flag authenticationType as required.",
    "type": "api-change"
  },
  {
    "category": "``organizations``",
    "description": "Added ALL_FEATURES_MIGRATION_ORGANIZATION_SIZE_LIMIT_EXCEEDED to ConstraintViolationException for the EnableAllFeatures operation.",
    "type": "api-change"
  },
  {
    "category": "``sagemaker``",
    "description": "Adding ETag information with Model Artifacts for Model Registry",
    "type": "api-change"
  },
  {
    "category": "``gamelift``",
    "description": "Amazon GameLift releases a new game session shutdown feature. Use the Amazon GameLift console or AWS CLI to terminate an in-progress game session that's entered a bad state or is no longer needed.",
    "type": "api-change"
  },
  {
    "category": "``mediaconnect``",
    "description": "AWS Elemental MediaConnect now supports Content Quality Analysis for enhanced source stream monitoring. This enables you to track specific audio and video metrics in transport stream source flows, ensuring your content meets quality standards.",
    "type": "api-change"
  },
  {
    "category": "``sqs``",
    "description": "In-flight message typo fix from 20k to 120k.",
    "type": "api-change"
  },
  {
    "category": "``mediaconvert``",
    "description": "This release adds support for the AVC3 codec and fixes an alignment issue with Japanese vertical captions.",
    "type": "api-change"
  }
]