[
  {
    "category": "``neptune-graph``",
    "description": "Add 4 new APIs to support new Export features, allowing Parquet and CSV formats. Add new arguments in Import APIs to support Parquet import. Add a new query \"neptune.read\" to run algorithms without loading data into database",
    "type": "api-change"
  },
  {
    "category": "``autoscaling``",
    "description": "Now, Amazon EC2 Auto Scaling customers can enable target tracking policies to take quicker scaling decisions, enhancing their application performance and EC2 utilization. To get started, specify target tracking to monitor a metric that is available on Amazon CloudWatch at seconds-level interval.",
    "type": "api-change"
  },
  {
    "category": "``omics``",
    "description": "This release adds support for resource policy based cross account S3 access to sequence store read sets.",
    "type": "api-change"
  },
  {
    "category": "``chatbot``",
    "description": "Adds support for programmatic management of custom actions and aliases which can be associated with channel configurations.",
    "type": "api-change"
  },
  {
    "category": "``stepfunctions``",
    "description": "Add support for variables and JSONata in TestState, GetExecutionHistory, DescribeStateMachine, and DescribeStateMachineForExecution",
    "type": "api-change"
  },
  {
    "category": "``workspaces``",
    "description": "While integrating WSP-DCV rebrand, a few mentions were erroneously renamed from WSP to DCV. This release reverts those mentions back to WSP.",
    "type": "api-change"
  },
  {
    "category": "``sagemaker``",
    "description": "This release adds APIs for new features for SageMaker endpoint to scale down to zero instances, native support for multi-adapter inference, and endpoint scaling improvements.",
    "type": "api-change"
  },
  {
    "category": "``lambda``",
    "description": "Add ProvisionedPollerConfig to Lambda event-source-mapping API.",
    "type": "api-change"
  },
  {
    "category": "``sns``",
    "description": "ArchivePolicy attribute added to Archive and Replay feature",
    "type": "api-change"
  },
  {
    "category": "``bcm-pricing-calculator``",
    "description": "Initial release of the AWS Billing and Cost Management Pricing Calculator API.",
    "type": "api-change"
  },
  {
    "category": "``mailmanager``",
    "description": "Added new \"DeliverToQBusiness\" rule action to MailManager RulesSet for ingesting email data into Amazon Q Business customer applications",
    "type": "api-change"
  },
  {
    "category": "``bedrock-agent-runtime``",
    "description": "InvokeInlineAgent API release to help invoke runtime agents without any dependency on preconfigured agents.",
    "type": "api-change"
  },
  {
    "category": "``ses``",
    "description": "This release adds support for starting email contacts in your Amazon Connect instance as an email receiving action.",
    "type": "api-change"
  },
  {
    "category": "``codepipeline``",
    "description": "AWS CodePipeline V2 type pipelines now support ECRBuildAndPublish and InspectorScan actions.",
    "type": "api-change"
  },
  {
    "category": "``emr``",
    "description": "Advanced Scaling in Amazon EMR Managed Scaling",
    "type": "api-change"
  },
  {
    "category": "``connect``",
    "description": "Amazon Connect Service Feature: Add APIs for Amazon Connect Email Channel",
    "type": "api-change"
  },
  {
    "category": "``ce``",
    "description": "This release adds the Impact field(contains Contribution field) to the GetAnomalies API response under RootCause",
    "type": "api-change"
  },
  {
    "category": "``cognito-idp``",
    "description": "Add support for users to sign up and sign in without passwords, using email and SMS OTPs and Passkeys. Add support for Passkeys based on WebAuthn. Add support for enhanced branding customization for hosted authentication pages with Amazon Cognito Managed Login. Add feature tiers with new pricing.",
    "type": "api-change"
  },
  {
    "category": "``inspector2``",
    "description": "Extend inspector2 service model to include ServiceQuotaExceededException.",
    "type": "api-change"
  },
  {
    "category": "``quicksight``",
    "description": "This release includes: Update APIs to support Image, Layer Map, font customization, and Plugin Visual. Add Identity center related information in ListNamsespace API. Update API for restrictedFolder support in topics and add API for SearchTopics, Describe/Update DashboardsQA Configration.",
    "type": "api-change"
  },
  {
    "category": "``elbv2``",
    "description": "This release adds support for advertising trusted CA certificate names in associated trust stores.",
    "type": "api-change"
  }
]