[
  {
    "category": "``cloudtrail``",
    "description": "Doc-only updates for CloudTrail.",
    "type": "api-change"
  },
  {
    "category": "``cognito-idp``",
    "description": "Updated descriptions for some API operations and parameters, corrected some errors in Cognito user pools",
    "type": "api-change"
  },
  {
    "category": "``artifact``",
    "description": "Add support for listing active customer agreements for the calling AWS Account.",
    "type": "api-change"
  },
  {
    "category": "``timestream-influxdb``",
    "description": "Adds networkType parameter to CreateDbInstance API which allows IPv6 support to the InfluxDB endpoint",
    "type": "api-change"
  },
  {
    "category": "``emr-serverless``",
    "description": "This release adds support for accessing system profile logs in Lake Formation-enabled jobs.",
    "type": "api-change"
  },
  {
    "category": "``sesv2``",
    "description": "Introduces support for multi-region endpoint.",
    "type": "api-change"
  },
  {
    "category": "``mgh``",
    "description": "API and documentation updates for AWS MigrationHub related to adding support for listing migration task updates and associating, disassociating and listing source resources",
    "type": "api-change"
  },
  {
    "category": "``controlcatalog``",
    "description": "Minor documentation updates to the content of ImplementationDetails object part of the Control Catalog GetControl API",
    "type": "api-change"
  }
]