[
  {
    "category": "``s3 ls``",
    "description": "Expose low-level ``ListBuckets` parameters ``Prefix`` and ``BucketRegion`` to high-level ``s3 ls`` command as ``--bucket-name-prefix`` and ``--bucket-region``.",
    "type": "enhancement"
  },
  {
    "category": "``dynamodb``",
    "description": "This release makes Amazon DynamoDB point-in-time-recovery (PITR) to be configurable. You can set PITR recovery period for each table individually to between 1 and 35 days.",
    "type": "api-change"
  },
  {
    "category": "``imagebuilder``",
    "description": "This release adds support for importing images from ISO disk files. Added new ImportDiskImage API operation.",
    "type": "api-change"
  },
  {
    "category": "``cloudhsmv2``",
    "description": "Adds support to ModifyCluster for modifying a Cluster's Hsm Type.",
    "type": "api-change"
  }
]