[
  {
    "category": "``apigateway``",
    "description": "Documentation updates for Amazon API Gateway",
    "type": "api-change"
  },
  {
    "category": "``workspaces-thin-client``",
    "description": "Mark type in MaintenanceWindow as required.",
    "type": "api-change"
  },
  {
    "category": "``workspaces``",
    "description": "Added GeneralPurpose.4xlarge & GeneralPurpose.8xlarge ComputeTypes.",
    "type": "api-change"
  },
  {
    "category": "``security-ir``",
    "description": "Increase minimum length of Threat Actor IP 'userAgent' to 1.",
    "type": "api-change"
  },
  {
    "category": "``cognito-identity``",
    "description": "corrects the dual-stack endpoint configuration",
    "type": "api-change"
  },
  {
    "category": "``s3``",
    "description": "The S3 client attempts to validate response checksums for all S3 API operations that support checksums. However, if the SDK has not implemented the specified checksum algorithm then this validation is skipped. Checksum validation behavior can be configured using the ``when_supported`` and ``when_required`` options - in the shared AWS config file using ``response_checksum_validation``, and as an env variable using ``AWS_RESPONSE_CHECKSUM_VALIDATION``.",
    "type": "feature"
  },
  {
    "category": "``s3``",
    "description": "S3 client behavior is updated to always calculate CRC64NVME checksum by default for operations that support it, such as PutObject or UploadPart, or require it, such as DeleteObjects. Checksum behavior can be configured using the ``when_supported`` and ``when_required`` options - in the shared AWS config file using ``request_checksum_calculation`` and as an env variable using ``AWS_REQUEST_CHECKSUM_CALCULATION``. Note: AWS CLI will no longer automatically compute and populate the Content-MD5 header.",
    "type": "feature"
  },
  {
    "category": "``sesv2``",
    "description": "This release introduces a new recommendation in Virtual Deliverability Manager Advisor, which detects elevated complaint rates for customer sending identities.",
    "type": "api-change"
  },
  {
    "category": "``s3``",
    "description": "This change enhances integrity protections for new SDK requests to S3. S3 SDKs now support the CRC64NVME checksum algorithm, full object checksums for multipart S3 objects, and new default integrity protections for S3 requests.",
    "type": "api-change"
  },
  {
    "category": "``s3``",
    "description": "Added support for the CRC64NVME checksum algorithm in the S3 CRT-based client.",
    "type": "feature"
  },
  {
    "category": "``bedrock-agent-runtime``",
    "description": "Now supports streaming for inline agents.",
    "type": "api-change"
  },
  {
    "category": "``partnercentral-selling``",
    "description": "Add Tagging support for ResourceSnapshotJob resources",
    "type": "api-change"
  }
]