[
  {
    "category": "``sso-oidc``",
    "description": "Fixed typos in the descriptions.",
    "type": "api-change"
  },
  {
    "category": "``healthlake``",
    "description": "Added new authorization strategy value 'SMART_ON_FHIR' for CreateFHIRDatastore API to support Smart App 2.0",
    "type": "api-change"
  },
  {
    "category": "``cloudtrail``",
    "description": "This release introduces the SearchSampleQueries API that allows users to search for CloudTrail Lake sample queries.",
    "type": "api-change"
  },
  {
    "category": "``eks``",
    "description": "Adds support for UpdateStrategies in EKS Managed Node Groups.",
    "type": "api-change"
  },
  {
    "category": "``ssm``",
    "description": "Systems Manager doc-only update for January, 2025.",
    "type": "api-change"
  },
  {
    "category": "``transfer``",
    "description": "Added CustomDirectories as a new directory option for storing inbound AS2 messages, MDN files and Status files.",
    "type": "api-change"
  }
]